eig_banded 100 10 0.6648804800352082
scipy_eig 100 10 0.9532273990334943
numpy_eig 100 10 1.0016254399670288
eigh 100 10 0.2712335380492732
dsbevd 100 10 0.5641382720787078
eigh_opt 100 10 0.2648361830506474
dsbev 100 10 1.8288085650419816
dsbevx 100 10 1.836210133973509
eig_banded 110 10 0.7314089359715581
scipy_eig 110 10 1.1869047760264948
numpy_eig 110 10 1.236318500014022
eigh 110 10 0.3447212149621919
dsbevd 110 10 0.7478453690418974
eigh_opt 110 10 0.3433237170102075
dsbev 110 10 2.4129179529845715
eigh 100 10 0.3407532289857045
scipy_eig 100 10 1.4951755549991503
numpy_eig 100 10 1.2225410720566288
dsbev 100 10 1.8972018979256973
eigh_opt 100 10 0.2867949380306527
eig_banded 100 10 0.5547110319603235
dsbevd 100 10 0.5429696530336514
dsbevx 100 10 1.8434865860035643
eigh 200 10 2.012922519003041
scipy_eig 200 10 7.4999158720020205
numpy_eig 200 10 6.265228271950036
dsbev 200 10 15.689932844950818
eigh_opt 200 10 1.9836294970009476
eig_banded 200 10 5.927530266111717
dsbevd 200 10 5.615103311953135
dsbevx 200 10 15.763436109991744
eigh 300 10 6.729825343936682
scipy_eig 300 10 19.997769354027696
numpy_eig 300 10 20.298485538107343
dsbev 300 10 53.327722543966956
eigh_opt 300 10 6.197801077971235
eig_banded 300 10 20.46532734995708
dsbevd 300 10 20.320068667992018
dsbevx 300 10 53.21247619308997
eigh 400 10 13.918334699934348
scipy_eig 400 10 43.87169676099438
numpy_eig 400 10 49.026522830012254
dsbev 400 10 128.71383482101373
eigh_opt 400 10 14.868115297984332
eig_banded 400 10 52.69647769595031
dsbevd 400 10 53.03751767298672
dsbevx 400 10 128.05833000410348
eigh 500 10 32.68530541099608
scipy_eig 500 10 95.26684592105448
numpy_eig 500 10 97.06630531698465
dsbev 500 10 261.1495311039034
eigh_opt 500 10 29.584016139036976
eig_banded 500 10 108.15936884004623
dsbevd 500 10 111.38468479004223
dsbevx 500 10 259.8233391890535
eigh 100 10 0.3597222870448604
eig_banded 100 10 0.6172353400615975
dsbevx 100 10 1.9425712049705908
dsbev 100 10 1.8710959469899535
numpy_eig 100 10 0.9659967410843819
scipy_eig 100 10 0.9534643669612706
dsbevd 100 10 0.547021270962432
eigh_opt 100 10 0.2874044389463961
eigh 100 10 0.29555672500282526
eig_banded 100 10 0.553790514008142
dsbevx 100 10 1.776092857006006
dsbev 100 10 1.8092205290449783
numpy_eig 100 10 1.1558727590600029
scipy_eig 100 10 1.0396944639505818
dsbevd 100 10 0.5703668580390513
eigh_opt 100 10 0.34697625890839845
eigh 100 10 0.2861147809308022
eig_banded 100 10 0.5601218499941751
dsbevx 100 10 1.8787542080972344
dsbev 100 10 1.8899250809336081
numpy_eig 100 10 1.470225430908613
scipy_eig 100 10 1.7577163759851828
dsbevd 100 10 0.5833676080219448
eigh_opt 100 10 0.3672569540794939
eigh 100 10 0.3331512809963897
eig_banded 100 10 0.5792389609850943
dsbevx 100 10 1.8794903450179845
dsbev 100 10 1.9129144370090216
numpy_eig 100 10 2.3016791460104287
scipy_eig 100 10 1.9155775989638641
dsbevd 100 10 0.73762007500045
eigh_opt 100 10 0.5210675870766863
eigh 100 10 0.9590613869950175
eig_banded 100 10 0.6565768339205533
dsbevx 100 10 2.026350656989962
dsbev 100 10 2.040176111040637
numpy_eig 100 10 1.047149293939583
scipy_eig 100 10 1.120637884014286
dsbevd 100 10 0.5902008519042283
eigh_opt 100 10 0.2822614439064637
eigh 100 10 0.27407233393751085
eig_banded 100 10 0.5823975439416245
dsbevx 100 10 2.013608488952741
dsbev 100 10 2.1240395409986377
numpy_eig 100 10 1.645459995022975
scipy_eig 100 10 1.57444738491904
dsbevd 100 10 0.6296671729069203
eigh_opt 100 10 0.3686225989367813
eigh 100 10 0.3638853330630809
eig_banded 100 10 0.5713447569869459
dsbevx 100 10 1.8781309749465436
dsbev 100 10 1.8751684291055426
numpy_eig 100 10 1.9684237210312858
scipy_eig 100 10 2.4291711000259966
dsbevd 100 10 0.6936805809382349
eigh_opt 100 10 0.720433491980657
eigh 100 10 0.8521161290118471
eig_banded 100 10 0.9132025440922007
dsbevx 100 10 2.0330431970069185
dsbev 100 10 1.8330668379785493
numpy_eig 100 10 0.948108334094286
scipy_eig 100 10 0.9764175059972331
dsbevd 100 10 0.5467485229019076
eigh_opt 100 10 0.28530086704995483
eigh 100 10 0.2646378059871495
eig_banded 100 10 0.5407468529883772
dsbevx 100 10 1.8813869450241327
dsbev 100 10 1.8794361309846863
numpy_eig 100 10 0.9612073838943616
scipy_eig 100 10 1.0979456850327551
dsbevd 100 10 0.5488849279936403
eigh_opt 100 10 0.2786719900323078
dsbevd 100 10 0.6249278840841725
eigh_opt 100 10 0.3203692720271647
eig_banded 100 10 0.575158740975894
numpy_eig 100 10 1.3602990319486707
eigh 100 10 0.3658114899881184
dsbevx 100 10 1.9121763280127198
dsbev 100 10 1.9254147990141064
scipy_eig 100 10 0.9848484230460599
dsbevd 100 10 0.59475296898745
eigh_opt 100 10 0.4304246190004051
eig_banded 100 10 0.6603732460644096
numpy_eig 100 10 1.2245884499279782
eigh 100 10 0.2779567890102044
dsbevx 100 10 1.8588988849660382
dsbev 100 10 1.8730309510137886
scipy_eig 100 10 0.9543597419979051
dsbevd 100 10 0.5466503959614784
eigh_opt 100 10 0.2836959999985993
eig_banded 100 10 0.5535745939705521
numpy_eig 100 10 0.995797864976339
eigh 100 10 0.2898249530699104
dsbevx 100 10 1.8379215939203277
dsbev 100 10 1.8514313540654257
scipy_eig 100 10 0.9750835350714624
dsbevd 100 10 0.5506282870192081
eigh_opt 100 10 0.2753418169450015
eig_banded 100 10 0.5504430941073224
numpy_eig 100 10 0.9963239209027961
eigh 100 10 0.2778089171042666
dsbevx 100 10 1.8831573409261182
dsbev 100 10 1.8788312929682434
scipy_eig 100 10 1.081357353948988
dsbevd 100 10 0.5680429459316656
eigh_opt 100 10 0.3135863650823012
eig_banded 100 10 0.5572812840109691
numpy_eig 100 10 2.1614056959515437
eigh 100 10 0.45372470503207296
dsbevx 100 10 2.0097143459133804
dsbev 100 10 1.898609415977262
scipy_eig 100 10 1.0270168399438262
dsbevd 150 10 2.5169157589552924
eigh_opt 150 10 1.359551178989932
eig_banded 150 10 2.435352305066772
numpy_eig 150 10 2.998247376992367
eigh 150 10 0.8867483810754493
dsbevx 150 10 6.544421851984225
dsbev 150 10 7.14946006599348
scipy_eig 150 10 4.178530748002231
dsbevd 150 10 2.441255860030651
eigh_opt 150 10 2.2485871949465945
eig_banded 150 10 2.713750934926793
numpy_eig 150 10 3.2733576700557023
eigh 150 10 0.8988690830301493
dsbevx 150 10 6.656980701023713
dsbev 150 10 6.919995519099757
scipy_eig 150 10 6.860473967040889
dsbevd 150 10 2.365127140074037
eigh_opt 150 10 0.845132214948535
eig_banded 150 10 2.204390779021196
numpy_eig 150 10 3.553851305041462
eigh 150 10 1.0393264010781422
dsbevx 150 10 7.0647466839291155
dsbev 150 10 6.63821176905185
scipy_eig 150 10 2.86301176098641
dsbevd 150 10 2.1735092640155926
eigh_opt 150 10 0.8811670549912378
eig_banded 150 10 2.1635658430168405
numpy_eig 150 10 2.9632373889908195
eigh 150 10 0.8909048339119181
dsbevx 150 10 6.427818296011537
dsbev 150 10 6.408230778994039
scipy_eig 150 10 2.889780597994104
dsbevd 150 10 2.2079219550359994
eigh_opt 150 10 0.8626281660981476
eig_banded 150 10 2.1798830539919436
numpy_eig 150 10 2.8693407489918172
eigh 150 10 0.8898235029773787
dsbevx 150 10 6.409975857939571
dsbev 150 10 6.391881539020687
scipy_eig 150 10 3.5602528479648754
dsbevd 200 10 6.036388725973666
eigh_opt 200 10 3.0549581239465624
eig_banded 200 10 6.718092567985877
numpy_eig 200 10 8.556109544006176
eigh 200 10 2.3615645839599892
dsbevx 200 10 16.65837430593092
dsbev 200 10 16.71734492504038
scipy_eig 200 10 13.858770060003735
dsbevd 200 10 8.601862482028082
eigh_opt 200 10 5.377710480010137
eig_banded 200 10 10.448797752032988
numpy_eig 200 10 20.676886252011172
eigh 200 10 3.96380233601667
dsbevx 200 10 28.71389044704847
dsbev 200 10 26.899688423029147
scipy_eig 200 10 18.53930558101274
sparse_eigs 100 10 11.47866951301694
sparse_eigs 200 10 116.55263862595893
sparse_eigs 300 10 438.80150453804526
sparse_eigs 400 10 1095.0094702640781
sparse_eigs 500 10 2152.3900092960102
