[[0.00707036]
 [0.00707036]
 [0.00707035]
 [0.00707035]
 [0.00707036]
 [0.00707036]
 [0.00707037]
 [0.00707036]
 [0.00707036]
 [0.00707036]
 [0.00707036]
 [0.00707037]
 [0.00707036]
 [0.00707036]
 [0.00707036]
 [0.00707036]
 [0.00707036]
 [0.00707036]
 [0.00707036]
 [0.00707036]]